Scheme
{
    Fonts
    {
        // CROSSHAIR SHIT //
		TacoCrosshair
		{
			"1"
			{
				"name"	"KnucklesCrosses"
				"tall"	"45"
				"antialias" "1"
				"additive"	"0"
				"outline"	"0"
			}
		}
		TacoCrosshair2
		{
			"1"
			{
				"name"	"KnucklesCrosses"
				"tall"	"15"
				"antialias" "1"
				"additive"	"0"
				"outline"	"0"
			}
		}
		TacoCrosshair3
		{
			"1"
			{
				"name"	"KnucklesCrosses"
				"tall"	"35"
				"antialias" "1"
				"additive"	"0"
				"outline"	"0"
			}
		}
    }
}