Scheme
{
    //////////////////////// CUSTOM FONT FILES /////////////////////////////
	//
	// specifies all the custom (non-system) font files that need to be loaded to service the above described fonts
	// Range specificies the characters to be used from the custom font before falling back to a default font
	// characters in the range not specificed in the font will appear empty
	// For TF2: Any special character will need to be added to our font file
	CustomFontFiles
	{
		"1" "resource/tf.ttf"
		"2" "resource/tfd.ttf"
		"3"
		{
			"font" "resource/TF2.ttf"
			"name" "TF2"
			"russian"
			{
				"range" "0x0000 0xFFFF"
			}
			"polish"
			{
				"range" "0x0000 0xFFFF"
			}
		}
		"4" 
		{
			"font" "resource/TF2Secondary.ttf"
			"name" "TF2 Secondary"
			"russian"
			{
				"range" "0x0000 0xFFFF"
			}
			"polish"
			{
				"range" "0x0000 0xFFFF"
			}
		}
		"5" 
		{
			"font" "resource/TF2Professor.ttf"
			"name" "TF2 Professor"
			"russian"
			{
				"range" "0x0000 0x00FF"
			}
			"polish"
			{
				"range" "0x0000 0x00FF"
			}
		}	
		"6" 
		{
			"font" "resource/TF2Build.ttf"
			"name" "TF2 Build"
			"russian"
			{
				"range" "0x0000 0xFFFF"
			}
			"polish"
			{
				"range" "0x0000 0xFFFF"
			}
			"turkish"
			{
				"range" "0x0000 0xFFFF"
			}
		}			
		"7"
		{
			"font"	"resource/ocra.ttf"
			"name" "ocra"
			"turkish"
			{
				"range" "0x0000 0x007E"
			}
			"swedish"
			{
				"range" "0x0000 0x007E"
			}
			"spanish"
			{
				"range" "0x0000 0x007E"
			}
			"romanian"
			{
				"range" "0x0000 0x007E"
			}
			"polish"
			{
				"range" "0x0000 0x007E"
			}
			"norwegian"
			{
				"range" "0x0000 0x007E"
			}
			"danish"
			{
				"range" "0x0000 0x007E"
			}
			"hungarian"
			{
				"range" "0x0000 0x007E"
			}
			"german"
			{
				"range" "0x0000 0x007E"
			}
			"french"
			{
				"range" "0x0000 0x007E"
			}
			"finnish"
			{
				"range" "0x0000 0x007E"
			}
			"czech"
			{
				"range" "0x0000 0x007E"
			}
			"bulgarian"
			{
				"range" "0x0000 0x007E"
			}
			"russian"
			{
				"range" "0x0000 0x007E"
			}
		}
        "8"
        {
            "font" "resource/scheme/Fonts/CaviarDreams.ttf"
            "name" "Caviar Dreams"
        }
        "9"
        {
            "font" "resource/scheme/Fonts/CaviarDreams_Bold.ttf"
            "name" "Caviar Dreams Bold"
        }
		"10"
		{
			"font" "resource/scheme/Fonts/Champagne & Limousines.ttf"
			"name" "Champagne & Limousines"
		}
		"11"
		{
			"font" "resource/scheme/Fonts/Champagne & Limousines Bold.ttf"
			"name" "Champagne & Limousines Bold"
		}
        "12"
		{
			"font" "resource/scheme/Fonts/KnucklesCrosses.ttf"
			"name" "KnucklesCrosses"
		}
		"13"
		{
			"font" "resource/scheme/Fonts/TF2 Class Icons.otf"
			"name" "TF2 Class Icons"
		}
		"14"
		{
			"font" "resource/scheme/Fonts/Hypnotize Icons.otf"
			"name" "Hypnotize Icons"
		}
		}
	}
}