"Resource/UI/HudAmmoWeapons.res"
{
	"HudWeaponAmmoBG"
	{
		"ControlName"	"CTFImagePanel"
		"fieldName"		"HudWeaponAmmoBG"
		"xpos"			"4"
		"xpos_minmode"	"28"
		"ypos"			"0"
		"ypos_minmode"	"7"
		"zpos"			"1"
		"wide"			"90"
		"tall"			"45"
		"visible"		"0"
		"enabled"		"0"
		"image"			"../hud/ammo_blue_bg"
		"scaleImage"	"1"	
		"teambg_2"		"../hud/ammo_red_bg"
		"teambg_2_lodef"	"../hud/ammo_red_bg_lodef"
		"teambg_3"		"../hud/ammo_blue_bg"
		"teambg_3_lodef"	"../hud/ammo_blue_bg_lodef"			
	}
	"HudWeaponLowAmmoImage"
	{
		"ControlName"	"ImagePanel"
		"fieldName"		"HudWeaponLowAmmoImage"
		"xpos"			"9999"
		"xpos_minmode"	"28"
		"ypos"			"0"
		"ypos_minmode"	"7"
		"zpos"			"0"
		"wide"			"90"
		"tall"			"45"
		"visible"		"0"
		"enabled"		"0"
		"image"			"../hud/ammo_red_bg"
		"scaleImage"	"1"	
		"teambg_2"		"../hud/ammo_red_bg"
		"teambg_2_lodef"	"../hud/ammo_red_bg_lodef"
		"teambg_3"		"../hud/ammo_blue_bg"
		"teambg_3_lodef"	"../hud/ammo_blue_bg_lodef"			
	}
	"AmmoInClip"
	{
		"ControlName"	"CExLabel"
		"fieldName"		"AmmoInClip"
		"font"			"TacoHealthAmmo"
		"fgcolor"		"White"
		"xpos"			"45"
		"xpos_minmode"	"8"
		"ypos"			"32"
		"ypos_minmode"	"2"
		"zpos"			"5"
		"wide"			"80"
		"tall"			"56"
		"tall_minmode"	"38"
		"tall_lodef"	"45"
		"visible"		"0"
		"enabled"		"1"
		"textAlignment"	"east"	
		"labelText"		"%Ammo%"
		
	}		
	"AmmoInClipShadow"
	{
		"ControlName"	"CExLabel"
		"fieldName"		"AmmoInClipShadow"
		"font"			"TacoHealthAmmo"
		"fgcolor"		"Black"
		"xpos"			"47"
		"xpos_minmode"	"9"
		"xpos_hidef"	"2"
		"ypos"			"34"
		"ypos_minmode"	"2"
		"ypos_hidef"	"2"
		"ypos_lodef"	"2"
		"zpos"			"5"
		"wide"			"80"
		"tall"			"56"
		"tall_minmode"	"39"
		"tall_lodef"	"45"
		"visible"		"0"
		"enabled"		"1"
		"textAlignment"	"east"	
		"labelText"		"%Ammo%"
		
	}						
	"AmmoInReserve"
	{
		"ControlName"	"CExLabel"
		"fieldName"		"AmmoInReserve"
		"font"			"TacoHealthAmmoSmall"
		"font_lodef"	"TacoHealthAmmoSmall"
		"font_minmode"	"TacoHealthAmmoSmall"
		"fgcolor"		"White"
		"xpos"			"125"
		"xpos_minmode"	"65"
		"ypos"			"32"
		"ypos_lodef"	"10"
		"zpos"			"7"
		"wide"			"80"
		"tall"			"56"
		"tall_lodef"	"30"
		"visible"		"0"
		"enabled"		"1"
		"textAlignment"	"west"		
		"labelText"		"%AmmoInReserve%"
	}		
	"AmmoInReserveShadow"
	{
		"ControlName"	"CExLabel"
		"fieldName"		"AmmoInReserveShadow"
		"font"			"TacoHealthAmmoSmall"
		"font_lodef"	"TacoHealthAmmoSmall"
		"font_minmode"	"TacoHealthAmmoSmall"
		"fgcolor"		"black"
		"xpos"			"127"
		"xpos_minmode"	"66"
		"ypos"			"34"
		"ypos_lodef"	"11"
		"zpos"			"7"
		"wide"			"80"
		"tall"			"56"
		"tall_lodef"	"30"
		"visible"		"0"
		"enabled"		"1"
		"textAlignment"	"west"		
		"labelText"		"%AmmoInReserve%"
	}									
	"AmmoNoClip"
	{
		"ControlName"	"CExLabel"
		"fieldName"		"AmmoNoClip"
		"font"			"TacoHealthAmmo"
		"fgcolor"		"White"
		"xpos"			"85"
		"ypos"			"32"
		"zpos"			"5"
		"wide"			"80"
		"wide_lodef"	"80"
		"tall"			"56"
		"tall_minmode"	"56"
		"tall_lodef"	"56"
		"visible"		"0"
		"enabled"		"1"
		"textAlignment"	"center"		
		"labelText"		"%Ammo%"
		
	}	
	"AmmoNoClipShadow"
	{
		"ControlName"	"CExLabel"
		"fieldName"		"AmmoNoClipShadow"
		"font"			"TacoHealthAmmo"
		"fgcolor"		"Black"
		"xpos"			"87"
		"xpos_hidef"	"87"
		"xpos_lodef"	"87"
		"ypos"			"34"
		"ypos_hidef"	"34"
		"ypos_lodef"	"34"
		"zpos"			"5"
		"wide"			"80"
		"wide_lodef"	"80"
		"tall"			"56"
		"tall_minmode"	"56"
		"tall_lodef"	"56"
		"visible"		"0"
		"enabled"		"1"
		"textAlignment"	"center"		
		"labelText"		"%Ammo%"
		
	}									
}
