"Resource/UI/HudAccountPanel.res"
{
	"CHudAccountPanel"
	{
		"delta_item_x"			"28"
		"delta_item_start_y"	"90"
		"delta_item_end_y"		"70"
		"PositiveColor"			"0 255 0 255"
		"NegativeColor"			"255 0 0 255"
		"delta_lifetime"		"1.5"
		"delta_item_font"		"HudFontMedium"
	}
	
	"AccountBG"
	{
		"ControlName"	"CTFImagePanel"
		"fieldName"		"AccountBG"
		"xpos"			"9999"
		"ypos"			"103"
		"zpos"			"0"
		"wide"			"84"
		"tall"			"42"
		"visible"		"1"
		"enabled"		"1"
		"image"			"../hud/misc_ammo_area_blue"
		"scaleImage"	"1"	
		"teambg_2"		"../hud/misc_ammo_area_red"
		"teambg_2_lodef"	"../hud/misc_ammo_area_red_lodef"
		"teambg_3"		"../hud/misc_ammo_area_blue"
		"teambg_3_lodef"	"../hud/misc_ammo_area_blue_lodef"
	}
	
	"MetalIcon"	
	{
		"ControlName"	"CIconPanel"
		"fieldName"		"MetalIcon"
		"xpos"			"14"
		"ypos"			"118"
		"zpos"			"1"
		"wide"			"15"
		"tall"			"15"
		"visible"		"1"
		"enabled"		"1"
		"scaleImage"	"1"	
		"icon"			"ico_metal"
		"iconColor"		"white"
	}
	"MetalIconShadow"	
	{
		"ControlName"	"CIconPanel"
		"fieldName"		"MetalIconShadow"
		"xpos"			"15"
		"ypos"			"119"
		"zpos"			"1"
		"wide"			"15"
		"tall"			"15"
		"visible"		"1"
		"enabled"		"1"
		"scaleImage"	"1"	
		"icon"			"ico_metal"
		"iconColor"		"black"
	}
	
	"AccountValue"
	{
		"ControlName"	"CExLabel"
		"fieldName"		"AccountValue"
		"xpos"			"32"
		"ypos"			"112"
		"ypos_lodef"	"121"
		"zpos"			"2"
		"wide"			"55"
		"tall"			"26"
		"autoResize"	"1"
		"pinCorner"		"2"
		"visible"		"1"
		"enabled"		"1"
		"tabPosition"	"0"
		"labelText"		"%metal%"
		"textAlignment"	"west"
		"dulltext"		"0"
		"brighttext"	"0"
		"font"			"TacoStickies"
		"fgcolor"		"White"
	}
	"AccountValueShadow"
	{
		"ControlName"	"CExLabel"
		"fieldName"		"AccountValueShadow"
		"xpos"			"33"
		"ypos"			"113"
		"ypos_lodef"	"121"
		"zpos"			"2"
		"wide"			"55"
		"tall"			"26"
		"autoResize"	"1"
		"pinCorner"		"2"
		"visible"		"1"
		"enabled"		"1"
		"tabPosition"	"0"
		"labelText"		"%metal%"
		"textAlignment"	"west"
		"dulltext"		"0"
		"brighttext"	"0"
		"font"			"TacoStickies"
		"fgcolor"		"black"
	}
}