"Resource/UI/HudDemomanCharge.res"
{	
	"ChargeMeter"
	{	
		"ControlName"	"ContinuousProgressBar"
		"fieldName"		"ChargeMeter"
		"font"			"Default"
		"xpos"			"30"
		"ypos"			"0"
		"zpos"			"2"
		"wide"			"120"
		"tall"			"6"				
		"autoResize"	"0"
		"pinCorner"		"0"
		"visible"		"1"
		"enabled"		"1"
		"textAlignment"	"Left"
		"dulltext"		"0"
		"brighttext"	"0"
		"fgcolor_override"	"White"
	}					
}
