"Resource/UI/HudItemEffectMeter_SpyKnife.res"
{
	HudItemEffectMeter
	{
		"fieldName"		"HudItemEffectMeter"
		"visible"		"1"
		"enabled"		"1"
		"xpos"			"c-90"
		"xpos_minmode"	"r52"
		"ypos"			"c68"
		"ypos_minmode"	"r54"
		"wide"			"150"
		"tall"			"50"
		"MeterFG"		"White"
		"MeterBG"		"Gray"
	}
	
	"ItemEffectMeterBG"
	{
		"ControlName"	"CTFImagePanel"
		"fieldName"		"ItemEffectMeterBG"
		"xpos"			"9999"
		"ypos"			"6"
		"zpos"			"0"
		"wide"			"100"
		"tall"			"50"
		"visible"		"0"
		"visible_minmode"	"0"
		"enabled"		"0"
		"image"			"../hud/misc_ammo_area_horiz1_blue"
		"scaleImage"	"1"	
		"teambg_2"		"../hud/misc_ammo_area_horiz1_red"
		"teambg_2_lodef"	"../hud/misc_ammo_area_red_lodef"
		"teambg_3"		"../hud/misc_ammo_area_horiz1_blue"
		"teambg_3_lodef"	"../hud/misc_ammo_area_blue_lodef"				
	}
	
	"ItemEffectMeterLabel"
	{
		"ControlName"			"CExLabel"
		"fieldName"				"ItemEffectMeterLabel"
		"xpos"					"-2"
		"ypos"					"-5"
		"zpos"					"2"
		"wide"					"30"
		"tall"					"15"
		"autoResize"			"1"
		"pinCorner"				"2"
		"visible"				"1"
		"visible_minmode"		"1"
		"ypos_minmode"			"1"
		"xpos_minmode"			"0"
		"enabled"				"1"
		"tabPosition"			"0"
		"labelText"				"#TF_ENERGYDRINK"
		"textAlignment"			"east"
		"dulltext"				"0"
		"brighttext"			"0"
		"font"					"TacoSmall"
	}

	"ItemEffectMeter"
	{	
		"ControlName"			"ContinuousProgressBar"
		"fieldName"				"ItemEffectMeter"
		"font"					"Default"
		"xpos"					"30"
		"ypos"					"0"
		"ypos_minmode"			"0"
		"xpos_minmode"			"0"
		"zpos"					"2"
		"wide"					"120"
		"wide_minmode"			"50"
		"tall"					"6"				
		"autoResize"			"0"
		"pinCorner"				"0"
		"visible"				"1"
		"enabled"				"1"
		"textAlignment"			"Left"
		"dulltext"				"0"
		"brighttext"			"0"
	}					
}