"Resource/UI/HudItemEffectMeter_Demoman.res"
{
	HudItemEffectMeter
	{
		"fieldName"		"HudItemEffectMeter"
		"visible"		"1"
		"enabled"		"1"
		"xpos"			"c-90"
		"xpos_minmode"	"r52"
		"ypos"			"c48"
		"ypos_minmode"	"r54"
		"wide"			"190"
		"tall"			"50"
		"MeterFG"		"White"
		"MeterBG"		"Gray"
	}
	
	"ItemEffectMeterBG"
	{
		"ControlName"	"CTFImagePanel"
		"fieldName"		"ItemEffectMeterBG"
		"xpos"			"9999"
		"ypos"			"0"
		"zpos"			"0"
		"wide"			"76"
		"tall"			"44"
		"visible"		"1"
		"visible_minmode"	"0"
		"enabled"		"1"
		"image"			"../hud/misc_ammo_area_blue"
		"scaleImage"	"1"	
		"teambg_2"		"../hud/misc_ammo_area_red"
		"teambg_2_lodef"	"../hud/misc_ammo_area_red_lodef"
		"teambg_3"		"../hud/misc_ammo_area_blue"
		"teambg_3_lodef"	"../hud/misc_ammo_area_blue_lodef"				
	}
	
	"ItemEffectMeterLabel"
	{
		"ControlName"			"CExLabel"
		"fieldName"				"ItemEffectMeterLabel"
		"xpos"					"9999"
		"ypos"					"-5"
		"zpos"					"2"
		"wide"					"30"
		"tall"					"15"
		"autoResize"			"1"
		"pinCorner"				"2"
		"visible"				"1"
		"visible_minmode"		"1"
		"ypos_minmode"			"1"
		"xpos_minmode"			"0"
		"enabled"				"1"
		"tabPosition"			"0"
		"labelText"				"#TF_Ball"
		"textAlignment"			"east"
		"dulltext"				"0"
		"brighttext"			"0"
		"font"					"TacoSmall"
	}

	"ItemEffectMeter"
	{	
		"ControlName"			"ContinuousProgressBar"
		"fieldName"				"ItemEffectMeter"
		"font"					"Default"
		"xpos"					"30"
		"ypos"					"0"
		"ypos_minmode"			"0"
		"xpos_minmode"			"0"
		"zpos"					"2"
		"wide"					"120"
		"wide_minmode"			"50"
		"tall"					"6"				
		"autoResize"			"0"
		"pinCorner"				"0"
		"visible"				"0"
		"enabled"				"0"
		"textAlignment"			"Left"
		"dulltext"				"0"
		"brighttext"			"0"
	}					
	
	"ItemEffectMeterCount"
	{
		"ControlName"			"CExLabel"
		"fieldName"				"ItemEffectMeterCount"
		"xpos"					"154"
		"ypos"					"3"
		"zpos"					"2"
		"wide"					"40"
		"tall"					"20"	
		"pinCorner"				"2"
		"visible"				"1"
		"enabled"				"1"
		"tabPosition"			"0"
		"labelText"				"%progresscount%"
		"textAlignment"			"west"
		"dulltext"				"0"
		"brighttext"			"0"
		"font"					"TacoStickies"
		"fgcolor"				"White"
	}
	"ItemEffectMeterCountShadow"
	{
		"ControlName"			"CExLabel"
		"fieldName"				"ItemEffectMeterCountShadow"
		"xpos"					"155"
		"ypos"					"4"
		"zpos"					"2"
		"wide"					"40"
		"tall"					"20"	
		"pinCorner"				"2"
		"visible"				"1"
		"enabled"				"1"
		"tabPosition"			"0"
		"labelText"				"%progresscount%"
		"textAlignment"			"west"
		"dulltext"				"0"
		"brighttext"			"0"
		"font"					"TacoStickies"
		"fgcolor"				"black"
	}
}
