"Resource/UI/HudMedicCharge.res"
{	
	"Background"
	{
		"ControlName"	"CTFImagePanel"
		"fieldName"		"Background"
		"xpos"			"9999"
		"ypos"			"0"
		"zpos"			"0"
		"wide"			"130"
		"tall"			"65"
		"visible"		"0"
		"enabled"		"0"
		"image"			"../hud/medic_charge_blue_bg"
		"scaleImage"	"1"	
		"teambg_2"		"../hud/medic_charge_red_bg"
		"teambg_3"		"../hud/medic_charge_blue_bg"				
	}
	
	"ChargeLabel"
	{
		"ControlName"	"CExLabel"
		"fieldName"		"ChargeLabel"
		"xpos"					"58"
		"ypos"					"53"
		"zpos"					"2"
		"wide"					"30"
		"tall"					"15"
		"autoResize"			"1"
		"pinCorner"				"2"
		"visible"				"1"
		"visible_minmode"		"1"
		"ypos_minmode"			"1"
		"xpos_minmode"			"0"
		"enabled"				"1"
		"tabPosition"			"0"
		"labelText"		"#TF_UberchargeMinHUD"
		"textAlignment"			"east"
		"dulltext"				"0"
		"brighttext"			"0"
		"font"					"TacoSmall"
		"fgcolor"				"white"
	}

	"IndividualChargesLabel"
	{
		"ControlName"	"CExLabel"
		"fieldName"		"IndividualChargesLabel"
		"xpos"			"77"
		"xpos_minmode"			"40"
		"ypos"			"45"
		"ypos_minmode"			"11"
		"zpos"			"2"
		"wide"			"90"
		"tall"			"20"
		"autoResize"	"1"
		"pinCorner"		"2"
		"visible"		"1"
		"enabled"		"1"
		"tabPosition"	"0"
		"labelText"		"#TF_IndividualUberchargesMinHUD"
		"labelText_minmode"		"#TF_IndividualUberchargesMinHUD"
		"textAlignment"	"west"
		"dulltext"		"0"
		"brighttext"	"0"
		"font"			"TacoStickies"
	}
	
	"ChargeMeter"
	{	
		"ControlName"	"ContinuousProgressBar"
		"fieldName"		"ChargeMeter"
		"font"			"Default"
		"xpos"					"90"
		"ypos"					"58"
		"ypos_minmode"			"0"
		"xpos_minmode"			"0"
		"zpos"					"2"
		"wide"					"120"
		"wide_minmode"			"50"
		"tall"					"6"				
		"autoResize"			"0"
		"pinCorner"				"0"
		"visible"				"1"
		"enabled"				"1"
		"textAlignment"			"Left"
		"dulltext"				"0"
		"brighttext"			"0"
		"fgcolor_override"		"white"
	}		

	"ChargeMeter1"
	{	
		"ControlName"	"ContinuousProgressBar"
		"fieldName"		"ChargeMeter1"
		"font"			"Default"
		"xpos"			"90"
		"xpos_minmode"			"10"
		"ypos"			"58"
		"ypos_minmode"			"23"
		"zpos"			"2"
		"wide"			"58"
		"tall"			"6"				
		"autoResize"	"0"
		"pinCorner"		"0"
		"visible"		"1"
		"enabled"		"1"
		"textAlignment"	"Left"
		"dulltext"		"0"
		"brighttext"	"0"
	}

	"ChargeMeter2"
	{	
		"ControlName"	"ContinuousProgressBar"
		"fieldName"		"ChargeMeter2"
		"font"			"Default"
		"xpos"			"152"
		"xpos_minmode"			"32"
		"ypos"			"58"
		"ypos_minmode"			"23"
		"zpos"			"2"
		"wide"			"58"
		"tall"			"6"				
		"autoResize"	"0"
		"pinCorner"		"0"
		"visible"		"1"
		"enabled"		"1"
		"textAlignment"	"Left"
		"dulltext"		"0"
		"brighttext"	"0"
	}

	"ChargeMeter3"
	{	
		"ControlName"	"ContinuousProgressBar"
		"fieldName"		"ChargeMeter3"
		"font"			"Default"
		"xpos"			"90"
		"xpos_minmode"			"54"
		"ypos"			"48"
		"ypos_minmode"			"23"
		"zpos"			"2"
		"wide"			"58"
		"tall"			"6"				
		"autoResize"	"0"
		"pinCorner"		"0"
		"visible"		"1"
		"enabled"		"1"
		"textAlignment"	"Left"
		"dulltext"		"0"
		"brighttext"	"0"
	}

	"ChargeMeter4"
	{	
		"ControlName"	"ContinuousProgressBar"
		"fieldName"		"ChargeMeter4"
		"font"			"Default"
		"xpos"			"152"
		"xpos_minmode"			"76"
		"ypos"			"48"
		"ypos_minmode"			"23"
		"zpos"			"2"
		"wide"			"58"
		"tall"			"6"				
		"autoResize"	"0"
		"pinCorner"		"0"
		"visible"		"1"
		"enabled"		"1"
		"textAlignment"	"Left"
		"dulltext"		"0"
		"brighttext"	"0"
	}
	
	"HealthClusterIcon"
	{
		"ControlName"	"ImagePanel"
		"fieldName"		"HealthClusterIcon"
		"xpos"			"9999"
		"ypos"			"17"
		"wide"			"36"
		"tall"			"36"
		"visible"		"1"
		"visible_minmode"		"0"
		"enabled"		"1"
		"image"			"../hud/ico_health_cluster"
		"scaleImage"	"1"	
	}	

	"ResistIconAnchor"
	{
		"ControlName" "EditablePanel"
		"fieldName" "ResistIconAnchor"
		"xpos" "230"
		"ypos" "44"
		"wide" "20"
		"tall" "20"
		"visible" "1"
		"enabled" "1"
	}
	"ResistIcon"
	{
		"ControlName"	"ImagePanel"
		"fieldName"		"ResistIcon"
		"xpos"			"0"
		"ypos"			"0"
		"wide"			"34"
		"tall"			"34"
		"visible"		"1"
		"visible_minmode"		"0"
		"enabled"		"1"
		"image"			"../HUD/defense_buff_bullet_blue"
		"scaleImage"	"1"	
		"pin_to_sibling" "ResistIconAnchor"
		"pin_corner_to_sibling" "1"
		"pin_to_sibling_corner" "1"
	}
	
}
