#base "HudItemEffectMeter.res"
"Resource/UI/HudRocketPack.res"
{
	HudItemEffectMeter
	{
		"fieldName"		"HudItemEffectMeter"
		"visible"		"1"
		"enabled"		"1"
		"xpos"			"c-90"
		"xpos_minmode"	"r52"
		"ypos"			"c58"
		"ypos_minmode"	"r54"
		"wide"			"150"
		"tall"			"50"
		"MeterFG"		"White"
		"MeterBG"		"Gray"
	}

	"ItemEffectMeterBG"
	{
		"ControlName"	"CTFImagePanel"
		"fieldName"		"ItemEffectMeterBG"
		"xpos"			"9999"
		"xpos_minmode"	"28"
		"ypos"			"0"
		"ypos_minmode"	"28"
		"zpos"			"1"
		"wide"			"90"
		"tall"			"45"
		"visible"		"1"
		"visible_minmode""0"
		"enabled"		"1"
		"scaleImage"	"1"	
		"image"				"../hud/ammo_blue_bg"
		"teambg_2"			"../hud/ammo_red_bg"
		"teambg_2_lodef"	"../hud/ammo_red_bg_lodef"
		"teambg_3"			"../hud/ammo_blue_bg"
		"teambg_3_lodef"	"../hud/ammo_blue_bg_lodef"					
	}

	"ItemEffectIcon"
	{
		"ControlName"	"CTFImagePanel"
		"fieldName"		"ItemEffectIcon"
		"xpos"			"17"
		"ypos"			"8"
		"ypos_minmode"	"15"
		"zpos"			"2"
		"wide"			"12"
		"tall"			"12"
		"visible"		"1"
		"visible_minmode""1"
		"enabled"		"1"
		"image"			"../hud/pyro_jetpack_off2"
		"scaleImage"	"1"	
	}

	"ItemEffectMeterLabel"
	{
		"ControlName"	"CExLabel"
		"fieldName"		"ItemEffectMeterLabel"
		"xpos"			"32"
		"xpos_minmode"	"32"
		"ypos"			"12"
		"ypos_minmode"	"27"
		"zpos"			"2"
		"wide"			"90"
		"tall"			"15"
		"autoResize"	"1"
		"pinCorner"		"2"
		"visible"		"0"
		"enabled"		"0"
		"tabPosition"	"0"
		"labelText"		"#TF_RocketPack_Disabled"
		"textAlignment"	"west"
		"dulltext"		"0"
		"brighttext"	"0"
		"font"			"HudFontSmallest"
		"fgcolor"		"178 0 0 255"
	}

	"ItemEffectMeter"
	{	
		"ControlName"	"ContinuousProgressBar"
		"fieldName"		"ItemEffectMeter"
		"font"			"Default"
		"xpos"			"30"
		"xpos_minmode"	"26"
		"ypos"			"10"
		"ypos_minmode"	"40"
		"zpos"			"2"
		"wide"			"58"
		"tall"			"6"				
		"autoResize"	"0"
		"pinCorner"		"0"
		"visible"		"1"
		"enabled"		"1"
		"textAlignment"	"Left"
		"dulltext"		"0"
		"brighttext"	"0"
		"fgcolor"		"White"
	}

	"ItemEffectMeter2"
	{	
		"ControlName"	"ContinuousProgressBar"
		"fieldName"		"ItemEffectMeter2"
		"font"			"Default"
		"xpos"			"92"
		"ypos"			"10"
		"zpos"			"2"
		"wide"			"58"
		"tall"			"6"				
		"autoResize"	"0"
		"pinCorner"		"0"
		"visible"		"1"
		"enabled"		"1"
		"textAlignment"	"Left"
		"dulltext"		"0"
		"brighttext"	"0"
		"fgcolor"		"White"
	}
}
