"Resource/UI/MvMCreditSpendPanel.res"
{	
	"HeaderLabel"
	{
		"ControlName"	"CExLabel"
		"fieldName"		"HeaderLabel"
		"font"			"TacoCurrency"
		"labelText"		"%header%"
		"textAlignment" "north-west"
		"xpos"			"0"
		"ypos"			"0"
		"wide"			"300"
		"tall"			"15"
		"fgcolor"		"tanlight"
	}
		
	"TableBackground"
	{
		"ControlName"	"EditablePanel"
		"fieldName"		"TableBackground"
		"xpos"			"0"
		"ypos"			"14"
		"zpos"			"-1"
		"wide"			"190"
		"tall"			"42"
		"visible"		"1"
		"bgcolor_override"		"20 20 20 0"
	}
	
	"UpgradesLabel"
	{
		"ControlName"	"CExLabel"
		"fieldName"		"UpgradesLabel"
		"font"			"TacoCurrencySmall"
		"labelText"		"#TF_PVE_Upgrades"
		"textAlignment" "north-west"
		"xpos"			"10"
		"ypos"			"15"
		"wide"			"90"
		"tall"			"20"
		"fgcolor"		"tanlight"
	}
	
	"UpgradesCountLabel"
	{
		"ControlName"	"CExLabel"
		"fieldName"		"UpgradesCountLabel"
		"font"			"TacoCurrencySmall"
		"labelText"		"%upgrades%"
		"textAlignment" "north-east"
		"xpos"			"100"
		"ypos"			"15"
		"wide"			"30"
		"tall"			"20"
		"fgcolor"		"tanlight"
	}
	
	"BuyBackLabel"
	{
		"ControlName"	"CExLabel"
		"fieldName"		"BuyBackLabel"
		"font"			"TacoCurrencySmall"
		"labelText"		"#TF_PVE_Buybacks"
		"textAlignment" "north-west"
		"xpos"			"10"
		"ypos"			"27"
		"wide"			"90"
		"tall"			"20"
		"fgcolor"		"tanlight"
	}
	
	"BuyBackCountLabel"
	{
		"ControlName"	"CExLabel"
		"fieldName"		"BuyBackCountLabel"
		"font"			"TacoCurrencySmall"
		"labelText"		"%buybacks%"
		"textAlignment" "north-east"
		"xpos"			"100"
		"ypos"			"27"
		"wide"			"30"
		"tall"			"20"
		"fgcolor"		"tanlight"
	}
	
	"BottleLabel"
	{
		"ControlName"	"CExLabel"
		"fieldName"		"BottleLabel"
		"font"			"TacoCurrencySmall"
		"labelText"		"#TF_PVE_Bottles"
		"textAlignment" "north-west"
		"xpos"			"10"
		"ypos"			"39"
		"wide"			"90"
		"tall"			"20"
		"fgcolor"		"tanlight"
	}
	
	"BottleCountLabel"
	{
		"ControlName"	"CExLabel"
		"fieldName"		"BottleCountLabel"
		"font"			"TacoCurrencySmall"
		"labelText"		"%bottles%"
		"textAlignment" "north-east"
		"xpos"			"100"
		"ypos"			"39"
		"wide"			"30"
		"tall"			"20"
		"fgcolor"		"tanlight"
	}
}
