"Resource/UI/TankStatusPanel.res"
{
	"Background"
	{
		"ControlName"		"ScalableImagePanel"
		"fieldName"		"Background"
		"xpos"			"9999"
		"ypos"			"0"
		"zpos"			"-1"
		"wide"			"200"
		"tall"			"24"
		"autoResize"	"0"
		"pinCorner"		"0"
		"visible"		"0"
		"enabled"		"0"
		"image"			"../HUD/tournament_panel_brown"

		"src_corner_height"	"22"				// pixels inside the image
		"src_corner_width"	"22"
		
		"draw_corner_width"	"5"				// screen size of the corners ( and sides ), proportional
		"draw_corner_height" 	"5"	
	}
}
