"Resource/UI/MainMenuOverride.res"
{
    "PreloadPanel"
    {
        "ControlName"	"EditablePanel"
		"fieldName"		"PreloadPanel"
		"xpos"			"6969"
		"visible"		"1"

        "deer_deernod"
		{
			"ControlName"	"ImagePanel"
			"visible"		"1"
			"image"			"../deernod"
		}
    }
}